…
OR

    Filter gapminder to contain six rows: the rows with the three largest GDP per capita, and the rows with the three smallest GDP per capita. Be sure to not create any intermediate objects when doing this (with, for example, the assignment operator). Hint: you might find the sort() function useful, or perhaps even the dplyr::slice() function.



```r
gapminder %>%
  group_by(country) %>%
  arrange(country,gdpPercap) %>%
  mutate(M_gdpPercap=max(gdpPercap))
```

```
## # A tibble: 1,704 x 7
## # Groups:   country [142]
##    country     continent  year lifeExp      pop gdpPercap M_gdpPercap
##    <fct>       <fct>     <int>   <dbl>    <int>     <dbl>       <dbl>
##  1 Afghanistan Asia       1997    41.8 22227415      635.        978.
##  2 Afghanistan Asia       1992    41.7 16317921      649.        978.
##  3 Afghanistan Asia       2002    42.1 25268405      727.        978.
##  4 Afghanistan Asia       1972    36.1 13079460      740.        978.
##  5 Afghanistan Asia       1952    28.8  8425333      779.        978.
##  6 Afghanistan Asia       1977    38.4 14880372      786.        978.
##  7 Afghanistan Asia       1957    30.3  9240934      821.        978.
##  8 Afghanistan Asia       1967    34.0 11537966      836.        978.
##  9 Afghanistan Asia       1987    40.8 13867957      852.        978.
## 10 Afghanistan Asia       1962    32.0 10267083      853.        978.
## # … with 1,694 more rows
```
…
