HW03: dplyr/ggplot2 Part II
…
#add legend for green and red

Task Option 3

Look at the spread of GDP per capita within the continents.

gapminder %>% 
  select(continent,gdpPercap) %>% 
  group_by(continent) %>%
  arrange(continent)

## # A tibble: 1,704 x 2
## # Groups:   continent [5]
##    continent gdpPercap
##    <fct>         <dbl>
##  1 Africa        2449.
##  2 Africa        3014.
##  3 Africa        2551.
##  4 Africa        3247.
##  5 Africa        4183.
##  6 Africa        4910.
##  7 Africa        5745.
##  8 Africa        5681.
##  9 Africa        5023.
## 10 Africa        4797.
## #  with 1,694 more rows
…
